{
  "prepare_queue": {
    "installed": [],
    "uninstalled": []
  },
  "config_munge": {
    "files": {}
  },
  "installed_plugins": {
    "cordova-plugin-camera": {
      "PACKAGE_NAME": "com.appsclan.legalapp"
    },
    "cordova-plugin-device": {
      "PACKAGE_NAME": "com.appsclan.legalapp"
    },
    "cordova-plugin-enable-multidex": {
      "PACKAGE_NAME": "com.appsclan.legalapp"
    },
    "cordova-plugin-inappbrowser": {
      "PACKAGE_NAME": "com.appsclan.legalapp"
    },
    "cordova-plugin-ionic-keyboard": {
      "PACKAGE_NAME": "com.appsclan.legalapp"
    },
    "cordova-plugin-ionic-webview": {
      "ANDROID_SUPPORT_ANNOTATIONS_VERSION": "27.+",
      "PACKAGE_NAME": "com.appsclan.legalapp"
    },
    "cordova-plugin-local-notification": {
      "PACKAGE_NAME": "com.appsclan.legalapp"
    },
    "cordova-plugin-network-information": {
      "PACKAGE_NAME": "com.appsclan.legalapp"
    },
    "cordova-plugin-splashscreen": {
      "PACKAGE_NAME": "com.appsclan.legalapp"
    },
    "cordova-plugin-statusbar": {
      "PACKAGE_NAME": "com.appsclan.legalapp"
    },
    "cordova-plugin-whitelist": {
      "PACKAGE_NAME": "com.appsclan.legalapp"
    },
    "cordova-plugin-facebook4": {
      "APP_ID": "347110125765907",
      "APP_NAME": "Legal App",
      "FACEBOOK_ANDROID_SDK_VERSION": "4.34.0",
      "PACKAGE_NAME": "com.appsclan.legalapp"
    },
    "cordova-plugin-googlemaps": {
      "API_KEY_FOR_ANDROID": "AIzaSyCBcnynHTpMoYk3TXwT_NzI16SERjjpqoc",
      "PLAY_SERVICES_VERSION": "15.0.1",
      "ANDROID_SUPPORT_V4_VERSION": "27.+",
      "PACKAGE_NAME": "com.appsclan.legalapp"
    }
  },
  "dependent_plugins": {
    "cordova-plugin-badge": {
      "PACKAGE_NAME": "com.appsclan.legalapp"
    }
  }
}